…
```{r}
[, -c(1)]
```

Next, we want to convert our data to the long format. In this case we want a column that denotes which lake the data point is from, and a column denoting how much rainfall. We want to make sure each group is paired with the correct data point. For this, we are going to be using the gather function. 


```R
messy_data<-gather(messy_data, key="Lake", value="Rainfall_mm", 3:4)
print(messy_data)
```

    # A tibble: 24 x 4
       Month Period    Lake     Rainfall_mm
       <chr> <chr>     <chr>    <chr>      
     1 Jan   2001-2019 Victoria 3.176mm    
     2 Feb   2001-2019 Victoria 3.477mm    
     3 Mar   2001-2019 Victoria 4.687052632
     4 Apr   2001-2019 Victoria 7.004526316
     5 May   2001-2019 Victoria 9.362789474
     6 Jun   2001-2019 Victoria 3.430210526
     7 Jul   2001-2019 Victoria 1.764421053
     8 Aug   2001-2019 Victoria 2.812631579
     9 Sep   2001-2019 Victoria 3.978894737
    10 Oct   2001-2019 Victoria 5.318421053
    # ... with 14 more rows
…
- The first argument is the data frame name
- The second argument is the new name of the column you want to create for the grouping variable. I chose "Lake" because I want to take the names of each lake and repeat it in the column twelve times; the number of observations of rainfall for that lake.
- The third argument is the name of the column for the value you want to pair with the grouping variable. I chose "Rainfall_mm" because that is the observation or data point I want to pair with each grouping variable.
- The final argument is the range of columns you want to turn into key-value pairs

Let's now remove some unnecessary characters. 


```R
messy_data$Rainfall_mm<-gsub('mm', '',messy_data$Rainfall_mm)
messy_data$Rainfall_mm<-as.numeric(messy_data$Rainfall_mm)
print(messy_data)
```

    # A tibble: 24 x 4
       Month Period    Lake     Rainfall_mm
       <chr> <chr>     <chr>          <dbl>
     1 Jan   2001-2019 Victoria        3.18
     2 Feb   2001-2019 Victoria        3.48
     3 Mar   2001-2019 Victoria        4.69
     4 Apr   2001-2019 Victoria        7.00
     5 May   2001-2019 Victoria        9.36
     6 Jun   2001-2019 Victoria        3.43
     7 Jul   2001-2019 Victoria        1.76
     8 Aug   2001-2019 Victoria        2.81
     9 Sep   2001-2019 Victoria        3.98
    10 Oct   2001-2019 Victoria        5.32
    # ... with 14 more rows
…
- The first argument is the string of characters you want to remove from each data point. I want to remove the "mm: off the end data points that have it
- The second argument denotes what you want to replace the "mm" character string with. In this case I put a space because I don't want anything to replace it
- The final argument is the column you want to apply this function to

When using the gsub function, the column is automatically converted to a character variable. Use the as.numeric function to convert the column back to a numeric variable.

Finally, let's ensure that all observations in the rainfall column are rounded to the same decimal point.


```R
messy_data[,'Rainfall_mm']=round(messy_data[,'Rainfall_mm'],2)
print(messy_data)
```

    # A tibble: 24 x 4
       Month Period    Lake     Rainfall_mm
       <chr> <chr>     <chr>          <dbl>
     1 Jan   2001-2019 Victoria        3.18
     2 Feb   2001-2019 Victoria        3.48
     3 Mar   2001-2019 Victoria        4.69
     4 Apr   2001-2019 Victoria        7   
     5 May   2001-2019 Victoria        9.36
     6 Jun   2001-2019 Victoria        3.43
     7 Jul   2001-2019 Victoria        1.76
     8 Aug   2001-2019 Victoria        2.81
     9 Sep   2001-2019 Victoria        3.98
    10 Oct   2001-2019 Victoria        5.32
    # ... with 14 more rows
…
